…
These results use no external dependencies. If we want to convert the
named list into a familiar sf object we will have to **post-process** it
using `post_process_pbf()`. The `use_sf` argument, which defaults to
`TRUE`, will use the `sf` package to return an `sf` object.

``` r
post_process_pbf(x)
#> Simple feature collection with 10 features and 18 fields
#> Geometry type: POINT
#> Dimension:     XY
#> Bounding box:  xmin: NA ymin: NA xmax: NA ymax: NA
#> Projected CRS: WGS 84 / Pseudo-Mercator
#>           id          retailer                fascia
#> 1 1010001841 Marks and Spencer Marks and Spencer MSA
#> 2 1010000921              Asda      Asda Supercentre
#> 3 1010003178        Sainsburys            Sainsburys
#> 4 1010014115           Budgens               Budgens
#> 5 1010015258              Lidl                  Lidl
#>                      store_name                  add_one          add_two
#> 1   M&S Reading East M4 Moto SF Reading East Services M4             <NA>
#> 2 Asda Lower Earley Supercentre             Chalfort Way     Lower Earley
#> 3             Sainsburys Calcot                Bath Road           Calcot
#> 4      Budgens Three Mile Cross         Basingstoke Road Three Mile Cross
#> 5           Lidl Calcot Reading                Bath Road             <NA>
#>               town suburb postcode   long_wgs  lat_wgs    bng_e    bng_n
#> 1          Reading Calcot RG30 3UQ -1.0350837 51.42616 467183.5 170124.7
#> 2          Reading Earley  RG6 5TT -0.9327606 51.42482 474299.7 170075.0
#> 3          Reading Calcot RG31 7SA -1.0614843 51.44304 465324.0 171978.0
#> 4 Three Mile Cross   <NA>  RG7 1BA -0.9739431 51.40521 471466.9 167853.1
#> 5          Reading Calcot RG30 2HB -1.0244860 51.44386 467894.1 172102.9
#>                            pqi open_date                              size_band
#> 1 Rooftop geocoded by Geolytix      <NA>                    < 3,013 ft2 (280m2)
#> 2 Rooftop geocoded by Geolytix      <NA>                30,138 ft2 > (2,800 m2)
#> 3 Rooftop geocoded by Geolytix      <NA>                30,138 ft2 > (2,800 m2)
#> 4 Rooftop geocoded by Geolytix  20169999    3,013 < 15,069 ft2 (280 < 1,400 m2)
#> 5 Rooftop geocoded by Geolytix  20171026 15,069 < 30,138 ft2 (1,400 < 2,800 m2)
#>      county ObjectId                  geometry
#> 1 Berkshire        1   POINT (-115225 6697025)
#> 2 Berkshire        2 POINT (-103834.4 6696787)
#> 3 Berkshire        3 POINT (-118163.9 6700039)
#> 4 Berkshire        4 POINT (-108418.9 6693287)
#> 5 Berkshire        5 POINT (-114045.3 6700186)
#>  [ reached 'max' / getOption("max.print") -- omitted 5 rows ]
```
…
